%YAML 1.1
%TAG !u! tag:unity3d.com,2011:
--- !u!114 &11400000
MonoBehaviour:
  m_ObjectHideFlags: 0
  m_CorrespondingSourceObject: {fileID: 0}
  m_PrefabInstance: {fileID: 0}
  m_PrefabAsset: {fileID: 0}
  m_GameObject: {fileID: 0}
  m_Enabled: 1
  m_EditorHideFlags: 0
  m_Script: {fileID: 11500000, guid: 468a46d0ae32c3544b7d98094e6448a9, type: 3}
  m_Name: AddressableAssetSettings
  m_EditorClassIdentifier: 
  m_DefaultGroup: e05e25fb96ddeff4d9e7f97b61bc4768
  m_OptimizeCatalogSize: 0
  m_BuildRemoteCatalog: 1
  m_BundleLocalCatalog: 0
  m_DisableCatalogUpdateOnStart: 1
  m_IgnoreUnsupportedFilesInBuild: 0
  m_UniqueBundleIds: 0
  m_maxConcurrentWebRequests: 500
  m_ContiguousBundles: 0
  m_RemoteCatalogBuildPath:
    m_Id: 83b3b549a5dd56e49962bc3a686501dc
  m_RemoteCatalogLoadPath:
    m_Id: 75fc2e24e68f0a94fb03883a9f8ff150
  m_overridePlayerVersion: 0.0.0
  m_GroupAssets:
  - {fileID: 11400000, guid: 3e5b338d63fb25f4c883995ea7cba538, type: 2}
  - {fileID: 11400000, guid: 406fbe0af762abe40b933e11a76b47ea, type: 2}
  - {fileID: 11400000, guid: 53ec737db74e4ec43bd673890a927143, type: 2}
  - {fileID: 11400000, guid: 73550536dfc5f7248b62e9631f2588cf, type: 2}
  m_BuildSettings:
    m_CompileScriptsInVirtualMode: 0
    m_CleanupStreamingAssetsAfterBuilds: 1
    m_LogResourceManagerExceptions: 1
    m_BundleBuildPath: Temp/com.unity.addressables/AssetBundles
  m_ProfileSettings:
    m_Profiles:
    - m_InheritedParent: 
      m_Id: 35d1d157c2b44754db2aad0d15ae0627
      m_ProfileName: Default
      m_Values:
      - m_Id: adc4d696ead355148adef2f935645d88
        m_Value: '[UnityEditor.EditorUserBuildSettings.activeBuildTarget]'
      - m_Id: 0e096af07e5120b43a68d25d2e6c1ca0
        m_Value: '[UnityEngine.AddressableAssets.Addressables.BuildPath]/[BuildTarget]'
      - m_Id: 33e9a6b9c8399df46abc6c94bf8fcbd5
        m_Value: '{UnityEngine.AddressableAssets.Addressables.RuntimePath}/[BuildTarget]'
      - m_Id: 83b3b549a5dd56e49962bc3a686501dc
        m_Value: ServerData/[BuildTarget]
      - m_Id: 75fc2e24e68f0a94fb03883a9f8ff150
        m_Value: http://[PrivateIpAddress]:[HostingServicePort]
    m_ProfileEntryNames:
    - m_Id: adc4d696ead355148adef2f935645d88
      m_Name: BuildTarget
      m_InlineUsage: 0
    - m_Id: 0e096af07e5120b43a68d25d2e6c1ca0
      m_Name: LocalBuildPath
      m_InlineUsage: 0
    - m_Id: 33e9a6b9c8399df46abc6c94bf8fcbd5
      m_Name: LocalLoadPath
      m_InlineUsage: 0
    - m_Id: 83b3b549a5dd56e49962bc3a686501dc
      m_Name: RemoteBuildPath
      m_InlineUsage: 0
    - m_Id: 75fc2e24e68f0a94fb03883a9f8ff150
      m_Name: RemoteLoadPath
      m_InlineUsage: 0
    m_ProfileVersion: 1
  m_LabelTable:
    m_LabelNames:
    - default
    - all
  m_SchemaTemplates: []
  m_GroupTemplateObjects:
  - {fileID: 11400000, guid: 18cba928bdaed3548b965872f16a4f5c, type: 2}
  m_InitializationObjects: []
  m_CertificateHandlerType:
    m_AssemblyName: 
    m_ClassName: 
  m_ActivePlayerDataBuilderIndex: 3
  m_DataBuilders:
  - {fileID: 11400000, guid: a25520b5a3ba0ab49b717a544f6b6beb, type: 2}
  - {fileID: 11400000, guid: cf590dba97f8a7d40998f257677b0538, type: 2}
  - {fileID: 11400000, guid: 2fa4829a2c63f1c46b335eeecae1c37a, type: 2}
  - {fileID: 11400000, guid: b03388d8d4dcb014ab5522be82c54aee, type: 2}
  m_ActiveProfileId: 35d1d157c2b44754db2aad0d15ae0627
  m_HostingServicesManager:
    m_HostingServiceInfos:
    - classRef: UnityEditor.AddressableAssets.HostingServices.HttpHostingService,
        Unity.Addressables.Editor
      dataStore:
        m_SerializedData:
        - m_AssemblyName: mscorlib, Version=4.0.0.0, Culture=neutral, PublicKeyToken=b77a5c561934e089
          m_ClassName: System.Int32
          m_Data: 62050
          m_Key: HostingServicePort
        - m_AssemblyName: mscorlib, Version=4.0.0.0, Culture=neutral, PublicKeyToken=b77a5c561934e089
          m_ClassName: System.String
          m_Data: Library/com.unity.addressables/aa/Windows/StandaloneWindows64;ServerData/StandaloneWindows64
          m_Key: ContentRoot
        - m_AssemblyName: mscorlib, Version=4.0.0.0, Culture=neutral, PublicKeyToken=b77a5c561934e089
          m_ClassName: System.Boolean
          m_Data: True
          m_Key: IsEnabled
        - m_AssemblyName: mscorlib, Version=4.0.0.0, Culture=neutral, PublicKeyToken=b77a5c561934e089
          m_ClassName: System.String
          m_Data: Local Hosting 0
          m_Key: DescriptiveName
        - m_AssemblyName: mscorlib, Version=4.0.0.0, Culture=neutral, PublicKeyToken=b77a5c561934e089
          m_ClassName: System.Int32
          m_Data: 0
          m_Key: InstanceId
        - m_AssemblyName: mscorlib, Version=4.0.0.0, Culture=neutral, PublicKeyToken=b77a5c561934e089
          m_ClassName: System.Int32
          m_Data: 0
          m_Key: HostingServiceUploadSpeed
    m_Settings: {fileID: 11400000}
    m_NextInstanceId: 1
    m_RegisteredServiceTypeRefs:
    - UnityEditor.AddressableAssets.HostingServices.HttpHostingService, Unity.Addressables.Editor
